{
  "type": "service_account",
  "project_id": "membermanagement-77d73",
  "private_key_id": "e413117147277876b3207e89d3052f417238854f",
  "private_key": "-----BEGIN PRIVATE KEY-----\nMIIEvgIBADANBgkqhkiG9w0BAQEFAASCBKgwggSkAgEAAoIBAQC8Xxyx0o6dZcqk\nzQaKc7A4LQfSWIFB2s5hpeto8fPv+ufojhoDDlzXBU365/PZK+OyP5ToTXESuTBE\n6VKpk01/EjqpU+JM+cNpZkoCttA42nMnH5l3z3gCTvuAClJ69XLr8+BC+mN55i64\nnXoVcjb2f3Qt1OFIfj03gFCw+fD9GqDeCk/i08SUeV67etEOy8IdbPuXAfHvm0HF\nCoCvz/TMMhjpzCCBbtpL4/dTQmqHOIm1NzXn3mrEBDkwpJ7VYaaWTnUxtakQje+M\nWKxxhybK92hB3047MmSsxeyiwb9UHdvUOIR5O5gIcc4Ze2AhU3KfePJNEXgLzc9r\n5BlUQtRBAgMBAAECggEAGKsiAF2RJKasc4mQBjihRrIK+K5zevLTHTGT0yIAbph+\nn1Ngr67FVLlSnX2bzwBy6Khv8T4XBTswSY3+r8tlFjOGcB9WnvsEbryhC5rySMe+\n1cxLFkgasL60K+/uHkEfhCvjXhIZTeDplG63CrDy5rQJPGlI+Wviy25n4s1QlGyb\nPeoVDi4FI7FLh7BVScFvY0H4kGYLRf07w7M6TcBN8oOkW6vgruDBx3NrOSxViMA3\nc5DVrN3MXwz44NzioVvPidOsMqCAX5rGuuVaaEDOfQS2ktkS4oYlDnS6PmSKxafq\nzKukautZeyvFOQ8NxFKczMLB36YtsADL59zF4JwN2wKBgQDka/W2CMX7uhIpP3og\ntXvWOlwwDidN02Q3NYybx63YxAHFvU72V8e2L5j1bEOr6CH+BlY/3vpsbMzo5xRR\nkbKwXpHST8AYLK/wn1TUJVo48WTNDaJM/mmgyZ4L42h3fnIHVbj7+mUwyyNXJKjo\n3mLuWugNVsf27AaQc+dXc4PoLwKBgQDTHUjJRUx1eiZTeiCqUilk5NwIzjOGFlLg\n1TruDLqo2yVHAmyZeUQXj8RIj/wVbwcHaq7fWCyxSMEME0iUi96KbfzqSEOJZmuj\nwEFi4Dxq6NqE59vkc0tV4M5IfHNcQtJW6kEKZSmU/sd7CHDX8/zvujx93SfGDTIj\nSJAOc0N+jwKBgQCJhr6fZNTe5H6+uusq+lme9/A9NqhPYTD7VJBd0nFHC2wNxBbg\nlqU1eZ7cVNzBibe9m88eEYAw+6i7qTVAjzpImget2jpL08vyUdvfBsY1dpE8LDNF\nq/+owPsZKUfiegzpgaEohO+b2xJiCz5vRkXGQJFqRo+KiTzCiCYHLxOCHQKBgDW9\nr6ikvmjtVlJLtYMF9UmcxLJtI0qP5jsbrKuqi92uI5gm8tRCvWWuEE5UcNxX7hci\nPi/Wt1HN7m6PfhtqW5UrmIVfLeoNK3t81mhAIsEoU3Afwacu/k93MavcGlWzIO5F\nJZdq1yH5lXgpVuhyUMIJy5pSsOxGsauvrhQvnU/bAoGBAL5ojYPkiq7CAQ18scqq\nRzzD18hTiAxuA5mia/5HY2HIaw5d7ogwIh48JFzHeJT7Op0f72pRZGy76BiTFfM3\nNMgh66ePKKahSg0y5zQNCde1InjayvF+O2vwj1F8+nsuL0DdoFjFuOe0pvJe12vW\na50Bc+sQhiXRfj0hdMFxBEsZ\n-----END PRIVATE KEY-----\n",
  "client_email": "firebase-adminsdk-49vhj@membermanagement-77d73.iam.gserviceaccount.com",
  "client_id": "101373950939987866225",
  "auth_uri": "https://accounts.google.com/o/oauth2/auth",
  "token_uri": "https://oauth2.googleapis.com/token",
  "auth_provider_x509_cert_url": "https://www.googleapis.com/oauth2/v1/certs",
  "client_x509_cert_url": "https://www.googleapis.com/robot/v1/metadata/x509/firebase-adminsdk-49vhj%40membermanagement-77d73.iam.gserviceaccount.com"
}
